Assignment 5
…
## Logistic Regression Model Specification (classification)
## 
## Main Arguments:
##   penalty = tune()
##   mixture = 1
## 
## Computational engine: glmnet

# mixture = 1 is fixed in tune_spec (lasso); grid only varies penalty
lambda_grid <- grid_regular(penalty(), levels = 30)

lambda_grid

## # A tibble: 30 × 1
##     penalty
##       <dbl>
##  1 1   e-10
##  2 2.21e-10
##  3 4.89e-10
##  4 1.08e- 9
##  5 2.40e- 9
##  6 5.30e- 9
##  7 1.17e- 8
##  8 2.59e- 8
##  9 5.74e- 8
## 10 1.27e- 7
## # ℹ 20 more rows
…
set.seed(2023)
tune_rs <- tune_grid(
  tune_wf,
  incidents_folds,
  grid = lambda_grid,
  control = control_resamples(save_pred = T)
  
)

collect_metrics(tune_rs)

## # A tibble: 90 × 7
##     penalty .metric     .estimator  mean     n std_err .config         
##       <dbl> <chr>       <chr>      <dbl> <int>   <dbl> <chr>           
##  1 1   e-10 accuracy    binary     0.886    10 0.00502 pre0_mod01_post0
##  2 1   e-10 brier_class binary     0.102    10 0.00364 pre0_mod01_post0
##  3 1   e-10 roc_auc     binary     0.919    10 0.00554 pre0_mod01_post0
##  4 2.21e-10 accuracy    binary     0.886    10 0.00502 pre0_mod02_post0
##  5 2.21e-10 brier_class binary     0.102    10 0.00364 pre0_mod02_post0
##  6 2.21e-10 roc_auc     binary     0.919    10 0.00554 pre0_mod02_post0
##  7 4.89e-10 accuracy    binary     0.886    10 0.00502 pre0_mod03_post0
##  8 4.89e-10 brier_class binary     0.102    10 0.00364 pre0_mod03_post0
##  9 4.89e-10 roc_auc     binary     0.919    10 0.00554 pre0_mod03_post0
## 10 1.08e- 9 accuracy    binary     0.886    10 0.00502 pre0_mod04_post0
## # ℹ 80 more rows
…
